{
    "PLINAR_API_ENV":{
        "expressPort": "3000",
        "expressHost": "localhost",
        "neo4jDriverPort": "7687",
        "neo4jHost": "127.0.0.1",
        "neo4jUser": "neo4j",
        "neo4jPassword": "superawesomeneo4jpassword" 
    } 
}